{
  "name": "mi-comida-vegana",
  "integrations": {
    "cordova": {}
  },
  "type": "ionic-angular",
  "styles": [
    "styles.css",
    "../node_modules/snazzy-info-window/dist/snazzy-info-window.css"
  ]
}
